{
    "1": {
        "Bowler": "JJ Bumrah",
        "Economy": "4.00"
    },
    "2": {
        "Bowler": "J Theron",
        "Economy": "10.80"
    },
    "3": {
        "Bowler": "R Rampaul",
        "Economy": "11.00"
    },
    "4": {
        "Bowler": "SP Narine",
        "Economy": "11.00"
    },
    "5": {
        "Bowler": "JP Faulkner",
        "Economy": "11.45"
    },
    "6": {
        "Bowler": "MG Johnson",
        "Economy": "12.00"
    },
    "7": {
        "Bowler": "CH Morris",
        "Economy": "14.00"
    },
    "8": {
        "Bowler": "Kamran Khan",
        "Economy": "15.00"
    },
    "9": {
        "Bowler": "M Muralitharan",
        "Economy": "15.00"
    },
    "10": {
        "Bowler": "DW Steyn",
        "Economy": "15.00"
    }
}